[
    {"nama" : "John", "nilaiFisika" : 10, "nilaiKimia" : 9, "nilaiBiologi" : 8},
    {"nama" : "Peter", "nilaiFisika" : 7, "nilaiKimia" : 8, "nilaiBiologi" : 10},
    {"nama" : "Steve", "nilaiFisika" : 6, "nilaiKimia" : 9, "nilaiBiologi" : 8}
]